^C:\USERS\PHILIP\DOCUMENTS\GAME-PROJECT-P.O\SDL_ARKANOID\DEBUG\ANIMATEDSPRITE.OBJ|C:\USERS\PHILIP\DOCUMENTS\GAME-PROJECT-P.O\SDL_ARKANOID\DEBUG\BOSS.OBJ|C:\USERS\PHILIP\DOCUMENTS\GAME-PROJECT-P.O\SDL_ARKANOID\DEBUG\COLLIDER.OBJ|C:\USERS\PHILIP\DOCUMENTS\GAME-PROJECT-P.O\SDL_ARKANOID\DEBUG\COLLISIONMANAGER.OBJ|C:\USERS\PHILIP\DOCUMENTS\GAME-PROJECT-P.O\SDL_ARKANOID\DEBUG\DRAWMANAGER.OBJ|C:\USERS\PHILIP\DOCUMENTS\GAME-PROJECT-P.O\SDL_ARKANOID\DEBUG\ENGINE.OBJ|C:\USERS\PHILIP\DOCUMENTS\GAME-PROJECT-P.O\SDL_ARKANOID\DEBUG\GAMESTATE.OBJ|C:\USERS\PHILIP\DOCUMENTS\GAME-PROJECT-P.O\SDL_ARKANOID\DEBUG\HUD.OBJ|C:\USERS\PHILIP\DOCUMENTS\GAME-PROJECT-P.O\SDL_ARKANOID\DEBUG\HUDELEMENT.OBJ|C:\USERS\PHILIP\DOCUMENTS\GAME-PROJECT-P.O\SDL_ARKANOID\DEBUG\INPUTMANAGER.OBJ|C:\USERS\PHILIP\DOCUMENTS\GAME-PROJECT-P.O\SDL_ARKANOID\DEBUG\ISTATE.OBJ|C:\USERS\PHILIP\DOCUMENTS\GAME-PROJECT-P.O\SDL_ARKANOID\DEBUG\LOSESTATE.OBJ|C:\USERS\PHILIP\DOCUMENTS\GAME-PROJECT-P.O\SDL_ARKANOID\DEBUG\MAIN.OBJ|C:\USERS\PHILIP\DOCUMENTS\GAME-PROJECT-P.O\SDL_ARKANOID\DEBUG\MUSIC.OBJ|C:\USERS\PHILIP\DOCUMENTS\GAME-PROJECT-P.O\SDL_ARKANOID\DEBUG\PLAYER.OBJ|C:\USERS\PHILIP\DOCUMENTS\GAME-PROJECT-P.O\SDL_ARKANOID\DEBUG\PROJECTILE.OBJ|C:\USERS\PHILIP\DOCUMENTS\GAME-PROJECT-P.O\SDL_ARKANOID\DEBUG\SOUND.OBJ|C:\USERS\PHILIP\DOCUMENTS\GAME-PROJECT-P.O\SDL_ARKANOID\DEBUG\SOUNDMANAGER.OBJ|C:\USERS\PHILIP\DOCUMENTS\GAME-PROJECT-P.O\SDL_ARKANOID\DEBUG\SPRITE.OBJ|C:\USERS\PHILIP\DOCUMENTS\GAME-PROJECT-P.O\SDL_ARKANOID\DEBUG\SPRITEMANAGER.OBJ|C:\USERS\PHILIP\DOCUMENTS\GAME-PROJECT-P.O\SDL_ARKANOID\DEBUG\STARTSTATE.OBJ|C:\USERS\PHILIP\DOCUMENTS\GAME-PROJECT-P.O\SDL_ARKANOID\DEBUG\STATEMANAGER.OBJ|C:\USERS\PHILIP\DOCUMENTS\GAME-PROJECT-P.O\SDL_ARKANOID\DEBUG\STDAFX.OBJ|C:\USERS\PHILIP\DOCUMENTS\GAME-PROJECT-P.O\SDL_ARKANOID\DEBUG\SWORDHORIZONTAL.OBJ|C:\USERS\PHILIP\DOCUMENTS\GAME-PROJECT-P.O\SDL_ARKANOID\DEBUG\SWORDVERTICAL.OBJ|C:\USERS\PHILIP\DOCUMENTS\GAME-PROJECT-P.O\SDL_ARKANOID\DEBUG\TILE.OBJ|C:\USERS\PHILIP\DOCUMENTS\GAME-PROJECT-P.O\SDL_ARKANOID\DEBUG\UTILITY.OBJ|C:\USERS\PHILIP\DOCUMENTS\GAME-PROJECT-P.O\SDL_ARKANOID\DEBUG\WINSTATE.OBJ
C:\USERS\PHILIP\DOCUMENTS\GAME-PROJECT-P.O\DEBUG\SDL_ARKANOID.ILK
C:\USERS\PHILIP\DOCUMENTS\GAME-PROJECT-P.O\DEBUG\SDL_ARKANOID.EXE
C:\USERS\PHILIP\DOCUMENTS\GAME-PROJECT-P.O\DEBUG\SDL_ARKANOID.PDB
