^C:\USERS\PHILIP\DOCUMENTS\GAME-PROJECT-P.O\SDL_ARKANOID\DEBUG\ANIMATEDSPRITE.OBJ|C:\USERS\PHILIP\DOCUMENTS\GAME-PROJECT-P.O\SDL_ARKANOID\DEBUG\BOSS.OBJ|C:\USERS\PHILIP\DOCUMENTS\GAME-PROJECT-P.O\SDL_ARKANOID\DEBUG\COLLIDER.OBJ|C:\USERS\PHILIP\DOCUMENTS\GAME-PROJECT-P.O\SDL_ARKANOID\DEBUG\COLLISIONMANAGER.OBJ|C:\USERS\PHILIP\DOCUMENTS\GAME-PROJECT-P.O\SDL_ARKANOID\DEBUG\DRAWMANAGER.OBJ|C:\USERS\PHILIP\DOCUMENTS\GAME-PROJECT-P.O\SDL_ARKANOID\DEBUG\ENGINE.OBJ|C:\USERS\PHILIP\DOCUMENTS\GAME-PROJECT-P.O\SDL_ARKANOID\DEBUG\GAMESTATE.OBJ|C:\USERS\PHILIP\DOCUMENTS\GAME-PROJECT-P.O\SDL_ARKANOID\DEBUG\HUD.OBJ|C:\USERS\PHILIP\DOCUMENTS\GAME-PROJECT-P.O\SDL_ARKANOID\DEBUG\HUDELEMENT.OBJ|C:\USERS\PHILIP\DOCUMENTS\GAME-PROJECT-P.O\SDL_ARKANOID\DEBUG\INPUTMANAGER.OBJ|C:\USERS\PHILIP\DOCUMENTS\GAME-PROJECT-P.O\SDL_ARKANOID\DEBUG\ISTATE.OBJ|C:\USERS\PHILIP\DOCUMENTS\GAME-PROJECT-P.O\SDL_ARKANOID\DEBUG\LOSESTATE.OBJ|C:\USERS\PHILIP\DOCUMENTS\GAME-PROJECT-P.O\SDL_ARKANOID\DEBUG\MAIN.OBJ|C:\USERS\PHILIP\DOCUMENTS\GAME-PROJECT-P.O\SDL_ARKANOID\DEBUG\MUSIC.OBJ|C:\USERS\PHILIP\DOCUMENTS\GAME-PROJECT-P.O\SDL_ARKANOID\DEBUG\PLAYER.OBJ|C:\USERS\PHILIP\DOCUMENTS\GAME-PROJECT-P.O\SDL_ARKANOID\DEBUG\PROJECTILE.OBJ|C:\USERS\PHILIP\DOCUMENTS\GAME-PROJECT-P.O\SDL_ARKANOID\DEBUG\SOUND.OBJ|C:\USERS\PHILIP\DOCUMENTS\GAME-PROJECT-P.O\SDL_ARKANOID\DEBUG\SOUNDMANAGER.OBJ|C:\USERS\PHILIP\DOCUMENTS\GAME-PROJECT-P.O\SDL_ARKANOID\DEBUG\SPRITE.OBJ|C:\USERS\PHILIP\DOCUMENTS\GAME-PROJECT-P.O\SDL_ARKANOID\DEBUG\SPRITEMANAGER.OBJ|C:\USERS\PHILIP\DOCUMENTS\GAME-PROJECT-P.O\SDL_ARKANOID\DEBUG\STARTSTATE.OBJ|C:\USERS\PHILIP\DOCUMENTS\GAME-PROJECT-P.O\SDL_ARKANOID\DEBUG\STATEMANAGER.OBJ|C:\USERS\PHILIP\DOCUMENTS\GAME-PROJECT-P.O\SDL_ARKANOID\DEBUG\STDAFX.OBJ|C:\USERS\PHILIP\DOCUMENTS\GAME-PROJECT-P.O\SDL_ARKANOID\DEBUG\SWORDHORIZONTAL.OBJ|C:\USERS\PHILIP\DOCUMENTS\GAME-PROJECT-P.O\SDL_ARKANOID\DEBUG\SWORDVERTICAL.OBJ|C:\USERS\PHILIP\DOCUMENTS\GAME-PROJECT-P.O\SDL_ARKANOID\DEBUG\TILE.OBJ|C:\USERS\PHILIP\DOCUMENTS\GAME-PROJECT-P.O\SDL_ARKANOID\DEBUG\UTILITY.OBJ|C:\USERS\PHILIP\DOCUMENTS\GAME-PROJECT-P.O\SDL_ARKANOID\DEBUG\WINSTATE.OBJ
C:\WINDOWS\GLOBALIZATION\SORTING\SORTDEFAULT.NLS
C:\USERS\PHILIP\DOCUMENTS\GAME-PROJECT-P.O\EXTERNAL\SDL\LIB\WIN32\SDL2.LIB
C:\USERS\PHILIP\DOCUMENTS\GAME-PROJECT-P.O\EXTERNAL\SDL\LIB\WIN32\SDL2MAIN.LIB
C:\USERS\PHILIP\DOCUMENTS\GAME-PROJECT-P.O\EXTERNAL\SDL2_IMAGE-2.0.0\LIB\X86\SDL2_IMAGE.LIB
C:\USERS\PHILIP\DOCUMENTS\GAME-PROJECT-P.O\EXTERNAL\SDL2_MIXER-2.0.0\LIB\X86\SDL2_MIXER.LIB
C:\PROGRAM FILES (X86)\WINDOWS KITS\8.1\LIB\WINV6.3\UM\X86\KERNEL32.LIB
C:\PROGRAM FILES (X86)\WINDOWS KITS\8.1\LIB\WINV6.3\UM\X86\USER32.LIB
C:\PROGRAM FILES (X86)\WINDOWS KITS\8.1\LIB\WINV6.3\UM\X86\GDI32.LIB
C:\PROGRAM FILES (X86)\WINDOWS KITS\8.1\LIB\WINV6.3\UM\X86\WINSPOOL.LIB
C:\PROGRAM FILES (X86)\WINDOWS KITS\8.1\LIB\WINV6.3\UM\X86\COMDLG32.LIB
C:\PROGRAM FILES (X86)\WINDOWS KITS\8.1\LIB\WINV6.3\UM\X86\ADVAPI32.LIB
C:\PROGRAM FILES (X86)\WINDOWS KITS\8.1\LIB\WINV6.3\UM\X86\SHELL32.LIB
C:\PROGRAM FILES (X86)\WINDOWS KITS\8.1\LIB\WINV6.3\UM\X86\OLE32.LIB
C:\PROGRAM FILES (X86)\WINDOWS KITS\8.1\LIB\WINV6.3\UM\X86\OLEAUT32.LIB
C:\PROGRAM FILES (X86)\WINDOWS KITS\8.1\LIB\WINV6.3\UM\X86\UUID.LIB
C:\PROGRAM FILES (X86)\WINDOWS KITS\8.1\LIB\WINV6.3\UM\X86\ODBC32.LIB
C:\PROGRAM FILES (X86)\WINDOWS KITS\8.1\LIB\WINV6.3\UM\X86\ODBCCP32.LIB
C:\USERS\PHILIP\DOCUMENTS\GAME-PROJECT-P.O\SDL_ARKANOID\DEBUG\ANIMATEDSPRITE.OBJ
C:\USERS\PHILIP\DOCUMENTS\GAME-PROJECT-P.O\SDL_ARKANOID\DEBUG\BOSS.OBJ
C:\USERS\PHILIP\DOCUMENTS\GAME-PROJECT-P.O\SDL_ARKANOID\DEBUG\COLLIDER.OBJ
C:\USERS\PHILIP\DOCUMENTS\GAME-PROJECT-P.O\SDL_ARKANOID\DEBUG\COLLISIONMANAGER.OBJ
C:\USERS\PHILIP\DOCUMENTS\GAME-PROJECT-P.O\SDL_ARKANOID\DEBUG\DRAWMANAGER.OBJ
C:\USERS\PHILIP\DOCUMENTS\GAME-PROJECT-P.O\SDL_ARKANOID\DEBUG\HUD.OBJ
C:\USERS\PHILIP\DOCUMENTS\GAME-PROJECT-P.O\SDL_ARKANOID\DEBUG\ENGINE.OBJ
C:\USERS\PHILIP\DOCUMENTS\GAME-PROJECT-P.O\SDL_ARKANOID\DEBUG\GAMESTATE.OBJ
C:\USERS\PHILIP\DOCUMENTS\GAME-PROJECT-P.O\SDL_ARKANOID\DEBUG\HUDELEMENT.OBJ
C:\USERS\PHILIP\DOCUMENTS\GAME-PROJECT-P.O\SDL_ARKANOID\DEBUG\INPUTMANAGER.OBJ
C:\USERS\PHILIP\DOCUMENTS\GAME-PROJECT-P.O\SDL_ARKANOID\DEBUG\ISTATE.OBJ
C:\USERS\PHILIP\DOCUMENTS\GAME-PROJECT-P.O\SDL_ARKANOID\DEBUG\LOSESTATE.OBJ
C:\USERS\PHILIP\DOCUMENTS\GAME-PROJECT-P.O\SDL_ARKANOID\DEBUG\MAIN.OBJ
C:\USERS\PHILIP\DOCUMENTS\GAME-PROJECT-P.O\SDL_ARKANOID\DEBUG\MUSIC.OBJ
C:\USERS\PHILIP\DOCUMENTS\GAME-PROJECT-P.O\SDL_ARKANOID\DEBUG\PLAYER.OBJ
C:\USERS\PHILIP\DOCUMENTS\GAME-PROJECT-P.O\SDL_ARKANOID\DEBUG\PROJECTILE.OBJ
C:\USERS\PHILIP\DOCUMENTS\GAME-PROJECT-P.O\SDL_ARKANOID\DEBUG\SOUND.OBJ
C:\USERS\PHILIP\DOCUMENTS\GAME-PROJECT-P.O\SDL_ARKANOID\DEBUG\SOUNDMANAGER.OBJ
C:\USERS\PHILIP\DOCUMENTS\GAME-PROJECT-P.O\SDL_ARKANOID\DEBUG\STARTSTATE.OBJ
C:\USERS\PHILIP\DOCUMENTS\GAME-PROJECT-P.O\SDL_ARKANOID\DEBUG\SWORDHORIZONTAL.OBJ
C:\USERS\PHILIP\DOCUMENTS\GAME-PROJECT-P.O\SDL_ARKANOID\DEBUG\SWORDVERTICAL.OBJ
C:\USERS\PHILIP\DOCUMENTS\GAME-PROJECT-P.O\SDL_ARKANOID\DEBUG\TILE.OBJ
C:\USERS\PHILIP\DOCUMENTS\GAME-PROJECT-P.O\SDL_ARKANOID\DEBUG\SPRITE.OBJ
C:\USERS\PHILIP\DOCUMENTS\GAME-PROJECT-P.O\SDL_ARKANOID\DEBUG\SPRITEMANAGER.OBJ
C:\USERS\PHILIP\DOCUMENTS\GAME-PROJECT-P.O\SDL_ARKANOID\DEBUG\STATEMANAGER.OBJ
C:\USERS\PHILIP\DOCUMENTS\GAME-PROJECT-P.O\SDL_ARKANOID\DEBUG\STDAFX.OBJ
C:\USERS\PHILIP\DOCUMENTS\GAME-PROJECT-P.O\SDL_ARKANOID\DEBUG\UTILITY.OBJ
C:\USERS\PHILIP\DOCUMENTS\GAME-PROJECT-P.O\SDL_ARKANOID\DEBUG\WINSTATE.OBJ
C:\WINDOWS\SYSTEM32\TZRES.DLL
C:\PROGRAM FILES (X86)\MICROSOFT VISUAL STUDIO 14.0\VC\LIB\MSVCPRTD.LIB
C:\PROGRAM FILES (X86)\MICROSOFT VISUAL STUDIO 14.0\VC\LIB\MSVCRTD.LIB
C:\PROGRAM FILES (X86)\MICROSOFT VISUAL STUDIO 14.0\VC\LIB\OLDNAMES.LIB
C:\PROGRAM FILES (X86)\MICROSOFT VISUAL STUDIO 14.0\VC\LIB\VCRUNTIMED.LIB
C:\PROGRAM FILES (X86)\WINDOWS KITS\10\LIB\10.0.10150.0\UCRT\X86\UCRTD.LIB
C:\PROGRAM FILES (X86)\WINDOWS KITS\8.1\BIN\X86\RC.EXE
C:\PROGRAM FILES (X86)\MICROSOFT VISUAL STUDIO 14.0\VC\BIN\CVTRES.EXE
